…
``` r
states_2010 <- df1 %>%
  filter(year == 2010) %>%
  group_by(locationabbr) %>%
  tally() %>%
  filter(n >= 7)

print(states_2010)
```

    ## # A tibble: 49 × 2
    ##    locationabbr     n
    ##    <chr>        <int>
    ##  1 AL             204
    ##  2 AR             202
    ##  3 AZ             204
    ##  4 CA             815
    ##  5 CO             476
    ##  6 CT             339
    ##  7 DC              68
    ##  8 DE             204
    ##  9 FL            2785
    ## 10 GA             270
    ## # ℹ 39 more rows
…
